__________________________________________________________________________________________________
Layer (type)                    Output Shape         Param #     Connected to                     
==================================================================================================
input (InputLayer)              (None, None, 32, 16, 0                                            
__________________________________________________________________________________________________
gaussian_noise_2 (GaussianNoise (None, None, 32, 16, 0           input[0][0]                      
__________________________________________________________________________________________________
dropout_6 (Dropout)             (None, None, 32, 16, 0           gaussian_noise_2[0][0]           
__________________________________________________________________________________________________
Conv0 (TimeDistributed)         (None, None, 32, 16, 320         dropout_6[0][0]                  
__________________________________________________________________________________________________
Pool0 (TimeDistributed)         (None, None, 16, 8,  0           Conv0[0][0]                      
__________________________________________________________________________________________________
dropout_7 (Dropout)             (None, None, 16, 8,  0           Pool0[0][0]                      
__________________________________________________________________________________________________
Conv1 (TimeDistributed)         (None, None, 16, 8,  9248        dropout_7[0][0]                  
__________________________________________________________________________________________________
Pool1 (TimeDistributed)         (None, None, 8, 4, 3 0           Conv1[0][0]                      
__________________________________________________________________________________________________
dropout_8 (Dropout)             (None, None, 8, 4, 3 0           Pool1[0][0]                      
__________________________________________________________________________________________________
Conv2 (TimeDistributed)         (None, None, 8, 4, 6 18496       dropout_8[0][0]                  
__________________________________________________________________________________________________
Pool2 (TimeDistributed)         (None, None, 4, 2, 6 0           Conv2[0][0]                      
__________________________________________________________________________________________________
dropout_9 (Dropout)             (None, None, 4, 2, 6 0           Pool2[0][0]                      
__________________________________________________________________________________________________
Conv3 (TimeDistributed)         (None, None, 4, 2, 6 36928       dropout_9[0][0]                  
__________________________________________________________________________________________________
Pool3 (TimeDistributed)         (None, None, 2, 1, 6 0           Conv3[0][0]                      
__________________________________________________________________________________________________
dropout_10 (Dropout)            (None, None, 2, 1, 6 0           Pool3[0][0]                      
__________________________________________________________________________________________________
Conv4 (TimeDistributed)         (None, None, 2, 1, 1 73856       dropout_10[0][0]                 
__________________________________________________________________________________________________
Flatten (TimeDistributed)       (None, None, 256)    0           Conv4[0][0]                      
__________________________________________________________________________________________________
Dense (TimeDistributed)         (None, None, 256)    65792       Flatten[0][0]                    
__________________________________________________________________________________________________
masking_2 (Masking)             (None, None, 256)    0           Dense[0][0]                      
__________________________________________________________________________________________________
LSTM0 (Bidirectional)           (None, None, 512)    1050624     masking_2[0][0]                  
__________________________________________________________________________________________________
LSTM1 (Bidirectional)           (None, None, 512)    1574912     LSTM0[0][0]                      
__________________________________________________________________________________________________
DenseSoftmax (TimeDistributed)  (None, None, 83)     42579       LSTM1[0][0]                      
__________________________________________________________________________________________________
Softmax (Activation)            (None, None, 83)     0           DenseSoftmax[0][0]               
__________________________________________________________________________________________________
input_length (InputLayer)       (None, 1)            0                                            
__________________________________________________________________________________________________
CTCdecode (Lambda)              (None, None, None)   0           Softmax[0][0]                    
                                                                 input_length[0][0]               
==================================================================================================
Total params: 2,872,755
Trainable params: 2,872,755
Non-trainable params: 0
__________________________________________________________________________________________________
