| 1.0 |
" 1.0 "
$ 1.0 $
% 1.0 %
& 1.0 &
' 1.0 '
( 1.0 (
) 1.0 )
* 1.0 *
+ 1.0 +
, 1.0 ,
- 1.0 -
. 1.0 .
/ 1.0 /
0 1.0 0
1 1.0 1
2 1.0 2
3 1.0 3
4 1.0 4
5 1.0 5
6 1.0 6
7 1.0 7
8 1.0 8
9 1.0 9
: 1.0 :
; 1.0 ;
@ 1.0 @
A 1.0 A
B 1.0 B
C 1.0 C
D 1.0 D
E 1.0 E
F 1.0 F
G 1.0 G
H 1.0 H
I 1.0 I
J 1.0 J
K 1.0 K
L 1.0 L
M 1.0 M
N 1.0 N
O 1.0 O
P 1.0 P
Q 1.0 Q
R 1.0 R
S 1.0 S
T 1.0 T
U 1.0 U
V 1.0 V
W 1.0 W
X 1.0 X
Y 1.0 Y
Z 1.0 Z
_ 1.0 _
a 1.0 a
b 1.0 b
c 1.0 c
d 1.0 d
e 1.0 e
f 1.0 f
g 1.0 g
h 1.0 h
i 1.0 i
j 1.0 j
k 1.0 k
l 1.0 l
m 1.0 m
n 1.0 n
o 1.0 o
p 1.0 p
q 1.0 q
r 1.0 r
s 1.0 s
t 1.0 t
u 1.0 u
v 1.0 v
w 1.0 w
x 1.0 x
y 1.0 y
z 1.0 z
~ 1.0 ~
£ 1.0 £
À 1.0 À
Â 1.0 Â
É 1.0 É
È 1.0 È
Ê 1.0 Ê
Ë 1.0 Ë
Î 1.0 Î
Ï 1.0 Ï
Ô 1.0 Ô
Ù 1.0 Ù
Û 1.0 Û
Ü 1.0 Ü
Ç 1.0 Ç
à 1.0 à
â 1.0 â
é 1.0 é
è 1.0 è
ê 1.0 ê
ë 1.0 ë
î 1.0 î
ï 1.0 ï
ô 1.0 ô
ù 1.0 ù
û 1.0 û
ü 1.0 ü
ç 1.0 ç