%!PS-Adobe-3.0
%%Creator: graphviz version 2.40.1 (20161225.0304)
%%Title: FST
%%Pages: (atend)
%%BoundingBox: (atend)
%%EndComments
save
%%BeginProlog
/DotDict 200 dict def
DotDict begin

/setupLatin1 {
mark
/EncodingVector 256 array def
 EncodingVector 0

ISOLatin1Encoding 0 255 getinterval putinterval
EncodingVector 45 /hyphen put

% Set up ISO Latin 1 character encoding
/starnetISO {
        dup dup findfont dup length dict begin
        { 1 index /FID ne { def }{ pop pop } ifelse
        } forall
        /Encoding EncodingVector def
        currentdict end definefont
} def
/Times-Roman starnetISO def
/Times-Italic starnetISO def
/Times-Bold starnetISO def
/Times-BoldItalic starnetISO def
/Helvetica starnetISO def
/Helvetica-Oblique starnetISO def
/Helvetica-Bold starnetISO def
/Helvetica-BoldOblique starnetISO def
/Courier starnetISO def
/Courier-Oblique starnetISO def
/Courier-Bold starnetISO def
/Courier-BoldOblique starnetISO def
cleartomark
} bind def

%%BeginResource: procset graphviz 0 0
/coord-font-family /Times-Roman def
/default-font-family /Times-Roman def
/coordfont coord-font-family findfont 8 scalefont def

/InvScaleFactor 1.0 def
/set_scale {
       dup 1 exch div /InvScaleFactor exch def
       scale
} bind def

% styles
/solid { [] 0 setdash } bind def
/dashed { [9 InvScaleFactor mul dup ] 0 setdash } bind def
/dotted { [1 InvScaleFactor mul 6 InvScaleFactor mul] 0 setdash } bind def
/invis {/fill {newpath} def /stroke {newpath} def /show {pop newpath} def} bind def
/bold { 2 setlinewidth } bind def
/filled { } bind def
/unfilled { } bind def
/rounded { } bind def
/diagonals { } bind def
/tapered { } bind def

% hooks for setting color 
/nodecolor { sethsbcolor } bind def
/edgecolor { sethsbcolor } bind def
/graphcolor { sethsbcolor } bind def
/nopcolor {pop pop pop} bind def

/beginpage {	% i j npages
	/npages exch def
	/j exch def
	/i exch def
	/str 10 string def
	npages 1 gt {
		gsave
			coordfont setfont
			0 0 moveto
			(\() show i str cvs show (,) show j str cvs show (\)) show
		grestore
	} if
} bind def

/set_font {
	findfont exch
	scalefont setfont
} def

% draw text fitted to its expected width
/alignedtext {			% width text
	/text exch def
	/width exch def
	gsave
		width 0 gt {
			[] 0 setdash
			text stringwidth pop width exch sub text length div 0 text ashow
		} if
	grestore
} def

/boxprim {				% xcorner ycorner xsize ysize
		4 2 roll
		moveto
		2 copy
		exch 0 rlineto
		0 exch rlineto
		pop neg 0 rlineto
		closepath
} bind def

/ellipse_path {
	/ry exch def
	/rx exch def
	/y exch def
	/x exch def
	matrix currentmatrix
	newpath
	x y translate
	rx ry scale
	0 0 1 0 360 arc
	setmatrix
} bind def

/endpage { showpage } bind def
/showpage { } def

/layercolorseq
	[	% layer color sequence - darkest to lightest
		[0 0 0]
		[.2 .8 .8]
		[.4 .8 .8]
		[.6 .8 .8]
		[.8 .8 .8]
	]
def

/layerlen layercolorseq length def

/setlayer {/maxlayer exch def /curlayer exch def
	layercolorseq curlayer 1 sub layerlen mod get
	aload pop sethsbcolor
	/nodecolor {nopcolor} def
	/edgecolor {nopcolor} def
	/graphcolor {nopcolor} def
} bind def

/onlayer { curlayer ne {invis} if } def

/onlayers {
	/myupper exch def
	/mylower exch def
	curlayer mylower lt
	curlayer myupper gt
	or
	{invis} if
} def

/curlayer 0 def

%%EndResource
%%EndProlog
%%BeginSetup
14 default-font-family set_font
% /arrowlength 10 def
% /arrowwidth 5 def

% make sure pdfmark is harmless for PS-interpreters other than Distiller
/pdfmark where {pop} {userdict /pdfmark /cleartomark load put} ifelse
% make '<<' and '>>' safe on PS Level 1 devices
/languagelevel where {pop languagelevel}{1} ifelse
2 lt {
    userdict (<<) cvn ([) cvn load put
    userdict (>>) cvn ([) cvn load put
} if

%%EndSetup
setupLatin1
%%Page: 1 1
%%PageBoundingBox: 36 97 648 695
%%PageOrientation: Portrait
0 0 1 beginpage
gsave
36 97 612 598 boxprim clip newpath
0.733837 0.733837 set_scale 0 rotate 53.0572 136.444 translate
% 0
gsave
2 setlinewidth
bold
0 0 0 nodecolor
18 245.8718 18 18 ellipse_path stroke
0 0 0 nodecolor
14 /Times-Roman set_font
14.5 242.1718 moveto 7 (0) alignedtext
grestore
% 1
gsave
1 setlinewidth
solid
0 0 0 nodecolor
102 441.8718 18 18 ellipse_path stroke
0 0 0 nodecolor
14 /Times-Roman set_font
98.5 438.1718 moveto 7 (1) alignedtext
grestore
% 0->1
gsave
1 setlinewidth
0 0 0 edgecolor
newpath 20.3308 263.7835 moveto
25.1893 299.2666 37.1099 377.0366 51 399.8718 curveto
57.6389 410.7861 68.1543 420.1533 77.9165 427.2537 curveto
stroke
0 0 0 edgecolor
newpath 75.9513 430.1499 moveto
86.1852 432.8918 lineto
79.8949 424.3664 lineto
closepath fill
1 setlinewidth
solid
0 0 0 edgecolor
newpath 75.9513 430.1499 moveto
86.1852 432.8918 lineto
79.8949 424.3664 lineto
closepath stroke
0 0 0 edgecolor
14 /Times-Roman set_font
54 423.6718 moveto 12 (.:.) alignedtext
grestore
% 2
gsave
1 setlinewidth
solid
0 0 0 nodecolor
102 207.8718 18 18 ellipse_path stroke
0 0 0 nodecolor
14 /Times-Roman set_font
98.5 204.1718 moveto 7 (2) alignedtext
grestore
% 0->2
gsave
1 setlinewidth
0 0 0 edgecolor
newpath 18.7478 263.9863 moveto
21.146 306.5808 30.8996 407.2162 69 375.8718 curveto
90.1082 358.5064 97.9195 279.3841 100.6449 236.2016 curveto
stroke
0 0 0 edgecolor
newpath 104.1483 236.2427 moveto
101.2332 226.0568 lineto
97.16 235.8373 lineto
closepath fill
1 setlinewidth
solid
0 0 0 edgecolor
newpath 104.1483 236.2427 moveto
101.2332 226.0568 lineto
97.16 235.8373 lineto
closepath stroke
0 0 0 edgecolor
14 /Times-Roman set_font
51 384.6718 moveto 18 (0:0) alignedtext
grestore
% 0->2
gsave
1 setlinewidth
0 0 0 edgecolor
newpath 20.6912 263.7764 moveto
26.3201 296.2325 41.1797 359.5124 69 337.8718 curveto
84.8797 325.5194 94.3574 270.6122 98.8406 236.2267 curveto
stroke
0 0 0 edgecolor
newpath 102.3683 236.2177 moveto
100.1225 225.8637 lineto
95.4213 235.3583 lineto
closepath fill
1 setlinewidth
solid
0 0 0 edgecolor
newpath 102.3683 236.2177 moveto
100.1225 225.8637 lineto
95.4213 235.3583 lineto
closepath stroke
0 0 0 edgecolor
14 /Times-Roman set_font
51 345.6718 moveto 18 (1:1) alignedtext
grestore
% 0->2
gsave
1 setlinewidth
0 0 0 edgecolor
newpath 24.6976 262.9182 moveto
33.6839 283.1972 50.6502 312.7843 69 299.8718 curveto
79.8068 292.2671 89.6789 259.8621 95.7534 235.6486 curveto
stroke
0 0 0 edgecolor
newpath 99.1697 236.4114 moveto
98.1159 225.8691 lineto
92.3655 234.7675 lineto
closepath fill
1 setlinewidth
solid
0 0 0 edgecolor
newpath 99.1697 236.4114 moveto
98.1159 225.8691 lineto
92.3655 234.7675 lineto
closepath stroke
0 0 0 edgecolor
14 /Times-Roman set_font
51 306.6718 moveto 18 (2:2) alignedtext
grestore
% 0->2
gsave
1 setlinewidth
0 0 0 edgecolor
newpath 32.9449 256.6645 moveto
43.4784 262.8458 57.6688 268.2267 69 261.8718 curveto
79.6384 255.9054 87.2559 244.9587 92.4719 234.4731 curveto
stroke
0 0 0 edgecolor
newpath 95.7605 235.6904 moveto
96.6047 225.1293 lineto
89.3588 232.8588 lineto
closepath fill
1 setlinewidth
solid
0 0 0 edgecolor
newpath 95.7605 235.6904 moveto
96.6047 225.1293 lineto
89.3588 232.8588 lineto
closepath stroke
0 0 0 edgecolor
14 /Times-Roman set_font
51 268.6718 moveto 18 (3:3) alignedtext
grestore
% 0->2
gsave
1 setlinewidth
0 0 0 edgecolor
newpath 34.619 238.922 moveto
44.6287 234.6819 57.6021 229.0902 69 223.8718 curveto
71.4658 222.7428 74.0246 221.5466 76.5772 220.3368 curveto
stroke
0 0 0 edgecolor
newpath 78.1214 223.478 moveto
85.6179 215.9912 lineto
75.0888 217.169 lineto
closepath fill
1 setlinewidth
solid
0 0 0 edgecolor
newpath 78.1214 223.478 moveto
85.6179 215.9912 lineto
75.0888 217.169 lineto
closepath stroke
0 0 0 edgecolor
14 /Times-Roman set_font
51 235.6718 moveto 18 (4:4) alignedtext
grestore
% 0->2
gsave
1 setlinewidth
0 0 0 edgecolor
newpath 26.3272 229.5802 moveto
31.9438 220.4942 40.2863 210.0015 51 204.8718 curveto
58.231 201.4095 66.7139 200.7663 74.6631 201.3829 curveto
stroke
0 0 0 edgecolor
newpath 74.2655 204.8614 moveto
84.6555 202.7882 lineto
75.2404 197.9296 lineto
closepath fill
1 setlinewidth
solid
0 0 0 edgecolor
newpath 74.2655 204.8614 moveto
84.6555 202.7882 lineto
75.2404 197.9296 lineto
closepath stroke
0 0 0 edgecolor
14 /Times-Roman set_font
51 208.6718 moveto 18 (5:5) alignedtext
grestore
% 0->2
gsave
1 setlinewidth
0 0 0 edgecolor
newpath 21.8782 228.2323 moveto
26.2067 213.2445 34.8373 192.6514 51 182.8718 curveto
60.7877 176.9495 72.1784 181.5294 81.709 188.309 curveto
stroke
0 0 0 edgecolor
newpath 79.5419 191.0578 moveto
89.5184 194.6243 lineto
83.9436 185.6148 lineto
closepath fill
1 setlinewidth
solid
0 0 0 edgecolor
newpath 79.5419 191.0578 moveto
89.5184 194.6243 lineto
83.9436 185.6148 lineto
closepath stroke
0 0 0 edgecolor
14 /Times-Roman set_font
51 186.6718 moveto 18 (6:6) alignedtext
grestore
% 0->2
gsave
1 setlinewidth
0 0 0 edgecolor
newpath 22.418 228.2839 moveto
28.41 206.011 39.6711 169.5929 51 161.8718 curveto
64.9196 152.385 79.0076 167.3775 88.839 182.7206 curveto
stroke
0 0 0 edgecolor
newpath 85.9966 184.7899 moveto
94.1024 191.6125 lineto
92.0205 181.2242 lineto
closepath fill
1 setlinewidth
solid
0 0 0 edgecolor
newpath 85.9966 184.7899 moveto
94.1024 191.6125 lineto
92.0205 181.2242 lineto
closepath stroke
0 0 0 edgecolor
14 /Times-Roman set_font
51 165.6718 moveto 18 (7:7) alignedtext
grestore
% 0->2
gsave
1 setlinewidth
0 0 0 edgecolor
newpath 20.9996 228.095 moveto
25.9803 200.9658 36.8278 151.2733 51 140.8718 curveto
69.8513 127.036 85.0564 156.6498 93.8117 180.8165 curveto
stroke
0 0 0 edgecolor
newpath 90.5255 182.0243 moveto
97.0559 190.3673 lineto
97.1536 179.7729 lineto
closepath fill
1 setlinewidth
solid
0 0 0 edgecolor
newpath 90.5255 182.0243 moveto
97.0559 190.3673 lineto
97.1536 179.7729 lineto
closepath stroke
0 0 0 edgecolor
14 /Times-Roman set_font
51 144.6718 moveto 18 (8:8) alignedtext
grestore
% 0->2
gsave
1 setlinewidth
0 0 0 edgecolor
newpath 20.0045 227.7914 moveto
23.943 195.9902 33.8354 132.1462 51 118.8718 curveto
75.4061 99.9969 90.1362 147.4316 97.1089 180.0695 curveto
stroke
0 0 0 edgecolor
newpath 93.7103 180.9235 moveto
99.1027 190.0435 lineto
100.5745 179.5514 lineto
closepath fill
1 setlinewidth
solid
0 0 0 edgecolor
newpath 93.7103 180.9235 moveto
99.1027 190.0435 lineto
100.5745 179.5514 lineto
closepath stroke
0 0 0 edgecolor
14 /Times-Roman set_font
51 122.6718 moveto 18 (9:9) alignedtext
grestore
% 10
gsave
1 setlinewidth
solid
0 0 0 nodecolor
187.4983 443.8718 19.4965 19.4965 ellipse_path stroke
0 0 0 nodecolor
14 /Times-Roman set_font
180.4983 440.1718 moveto 14 (10) alignedtext
grestore
% 1->10
gsave
1 setlinewidth
0 0 0 edgecolor
newpath 120.132 442.2959 moveto
131.0845 442.5521 145.3072 442.8848 157.8601 443.1785 curveto
stroke
0 0 0 edgecolor
newpath 157.8242 446.6785 moveto
167.9033 443.4134 lineto
157.988 439.6804 lineto
closepath fill
1 setlinewidth
solid
0 0 0 edgecolor
newpath 157.8242 446.6785 moveto
167.9033 443.4134 lineto
157.988 439.6804 lineto
closepath stroke
0 0 0 edgecolor
14 /Times-Roman set_font
138 446.6718 moveto 12 (.:.) alignedtext
grestore
% 3
gsave
1 setlinewidth
solid
0 0 0 nodecolor
440.4879 292.8718 18 18 ellipse_path stroke
0 0 0 nodecolor
14 /Times-Roman set_font
436.9879 289.1718 moveto 7 (3) alignedtext
grestore
% 2->3
gsave
1 setlinewidth
0 0 0 edgecolor
newpath 104.1794 225.8877 moveto
108.6445 260.3185 119.7138 333.8287 135 353.8718 curveto
151.0362 374.8983 161.0545 381.8718 187.4983 381.8718 curveto
187.4983 381.8718 187.4983 381.8718 361.4913 381.8718 curveto
395.1995 381.8718 418.0288 345.721 430.1541 319.4993 curveto
stroke
0 0 0 edgecolor
newpath 433.4933 320.5976 moveto
434.2776 310.0319 lineto
427.0756 317.8024 lineto
closepath fill
1 setlinewidth
solid
0 0 0 edgecolor
newpath 433.4933 320.5976 moveto
434.2776 310.0319 lineto
427.0756 317.8024 lineto
closepath stroke
0 0 0 edgecolor
14 /Times-Roman set_font
269.4948 385.6718 moveto 10 (|:|) alignedtext
grestore
% 4
gsave
1 setlinewidth
solid
0 0 0 nodecolor
187.4983 161.8718 18 18 ellipse_path stroke
0 0 0 nodecolor
14 /Times-Roman set_font
183.9983 158.1718 moveto 7 (4) alignedtext
grestore
% 2->4
gsave
1 setlinewidth
0 0 0 edgecolor
newpath 103.076 226.0805 moveto
106.1399 266.7355 117.1517 359.1068 153 329.8718 curveto
174.219 312.5673 182.7551 233.4184 185.88 190.2161 curveto
stroke
0 0 0 edgecolor
newpath 189.3836 190.2787 moveto
186.5623 180.0664 lineto
182.3994 189.8091 lineto
closepath fill
1 setlinewidth
solid
0 0 0 edgecolor
newpath 189.3836 190.2787 moveto
186.5623 180.0664 lineto
182.3994 189.8091 lineto
closepath stroke
0 0 0 edgecolor
14 /Times-Roman set_font
135 338.6718 moveto 18 (0:0) alignedtext
grestore
% 2->4
gsave
1 setlinewidth
0 0 0 edgecolor
newpath 105.2984 225.6837 moveto
111.659 255.7919 127.3068 311.636 153 291.8718 curveto
169.0602 279.5176 179.1998 224.1693 184.0654 189.7974 curveto
stroke
0 0 0 edgecolor
newpath 187.5356 190.2533 moveto
185.4068 179.8745 lineto
180.5987 189.3155 lineto
closepath fill
1 setlinewidth
solid
0 0 0 edgecolor
newpath 187.5356 190.2533 moveto
185.4068 179.8745 lineto
180.5987 189.3155 lineto
closepath stroke
0 0 0 edgecolor
14 /Times-Roman set_font
135 300.6718 moveto 18 (1:1) alignedtext
grestore
% 2->4
gsave
1 setlinewidth
0 0 0 edgecolor
newpath 109.9284 224.1759 moveto
119.5165 241.6262 136.4375 265.3498 153 253.8718 curveto
163.9798 246.2626 174.4377 213.5269 180.9024 189.2586 curveto
stroke
0 0 0 edgecolor
newpath 184.3176 190.0308 moveto
183.4184 179.4742 lineto
177.5382 188.2875 lineto
closepath fill
1 setlinewidth
solid
0 0 0 edgecolor
newpath 184.3176 190.0308 moveto
183.4184 179.4742 lineto
177.5382 188.2875 lineto
closepath stroke
0 0 0 edgecolor
14 /Times-Roman set_font
135 261.6718 moveto 18 (2:2) alignedtext
grestore
% 2->4
gsave
1 setlinewidth
0 0 0 edgecolor
newpath 118.5319 215.5219 moveto
128.9875 219.1792 142.4671 221.6416 153 215.8718 curveto
163.8316 209.9383 171.7565 198.9959 177.2587 188.5048 curveto
stroke
0 0 0 edgecolor
newpath 180.567 189.6934 moveto
181.6446 179.1535 lineto
174.2294 186.721 lineto
closepath fill
1 setlinewidth
solid
0 0 0 edgecolor
newpath 180.567 189.6934 moveto
181.6446 179.1535 lineto
174.2294 186.721 lineto
closepath stroke
0 0 0 edgecolor
14 /Times-Roman set_font
135 223.6718 moveto 18 (3:3) alignedtext
grestore
% 2->4
gsave
1 setlinewidth
0 0 0 edgecolor
newpath 118.0816 199.2195 moveto
130.6207 192.4732 148.2563 182.9848 162.6138 175.2602 curveto
stroke
0 0 0 edgecolor
newpath 164.3408 178.3055 moveto
171.4888 170.4852 lineto
161.0242 172.1411 lineto
closepath fill
1 setlinewidth
solid
0 0 0 edgecolor
newpath 164.3408 178.3055 moveto
171.4888 170.4852 lineto
161.0242 172.1411 lineto
closepath stroke
0 0 0 edgecolor
14 /Times-Roman set_font
135 193.6718 moveto 18 (4:4) alignedtext
grestore
% 2->4
gsave
1 setlinewidth
0 0 0 edgecolor
newpath 109.1164 191.049 moveto
114.5381 180.5769 123.1083 167.976 135 161.8718 curveto
142.4116 158.0673 151.2234 156.9796 159.4907 157.1537 curveto
stroke
0 0 0 edgecolor
newpath 159.2821 160.648 moveto
169.5249 157.9394 lineto
159.8287 153.6693 lineto
closepath fill
1 setlinewidth
solid
0 0 0 edgecolor
newpath 159.2821 160.648 moveto
169.5249 157.9394 lineto
159.8287 153.6693 lineto
closepath stroke
0 0 0 edgecolor
14 /Times-Roman set_font
135 165.6718 moveto 18 (5:5) alignedtext
grestore
% 2->4
gsave
1 setlinewidth
0 0 0 edgecolor
newpath 105.0755 189.8827 moveto
108.947 173.4206 117.3628 149.9871 135 138.8718 curveto
144.7665 132.7167 156.4629 136.8641 166.3342 143.2402 curveto
stroke
0 0 0 edgecolor
newpath 164.3174 146.1016 moveto
174.4447 149.2142 lineto
168.4688 140.4655 lineto
closepath fill
1 setlinewidth
solid
0 0 0 edgecolor
newpath 164.3174 146.1016 moveto
174.4447 149.2142 lineto
168.4688 140.4655 lineto
closepath stroke
0 0 0 edgecolor
14 /Times-Roman set_font
135 142.6718 moveto 18 (6:6) alignedtext
grestore
% 2->4
gsave
1 setlinewidth
0 0 0 edgecolor
newpath 105.913 190.0672 moveto
111.5829 166.0987 122.7532 125.4578 135 116.8718 curveto
148.8863 107.1363 163.434 121.8501 173.6842 136.9933 curveto
stroke
0 0 0 edgecolor
newpath 170.9113 139.1599 moveto
179.1853 145.7774 lineto
176.844 135.4445 lineto
closepath fill
1 setlinewidth
solid
0 0 0 edgecolor
newpath 170.9113 139.1599 moveto
179.1853 145.7774 lineto
176.844 135.4445 lineto
closepath stroke
0 0 0 edgecolor
14 /Times-Roman set_font
135 120.6718 moveto 18 (7:7) alignedtext
grestore
% 2->4
gsave
1 setlinewidth
0 0 0 edgecolor
newpath 104.6416 189.7032 moveto
109.263 160.7589 119.7926 106.2733 135 94.8718 curveto
153.9129 80.6921 169.6876 110.3918 178.8616 134.6713 curveto
stroke
0 0 0 edgecolor
newpath 175.6249 136.0161 moveto
182.2686 144.2692 lineto
182.2217 133.6744 lineto
closepath fill
1 setlinewidth
solid
0 0 0 edgecolor
newpath 175.6249 136.0161 moveto
182.2686 144.2692 lineto
182.2217 133.6744 lineto
closepath stroke
0 0 0 edgecolor
14 /Times-Roman set_font
135 98.6718 moveto 18 (8:8) alignedtext
grestore
% 2->4
gsave
1 setlinewidth
0 0 0 edgecolor
newpath 103.7122 189.7207 moveto
107.2786 156.319 116.7331 87.2112 135 72.8718 curveto
159.447 53.6809 174.8489 101.2273 182.2516 133.9704 curveto
stroke
0 0 0 edgecolor
newpath 178.8756 134.9223 moveto
184.3753 143.9778 lineto
185.7231 133.469 lineto
closepath fill
1 setlinewidth
solid
0 0 0 edgecolor
newpath 178.8756 134.9223 moveto
184.3753 143.9778 lineto
185.7231 133.469 lineto
closepath stroke
0 0 0 edgecolor
14 /Times-Roman set_font
135 76.6718 moveto 18 (9:9) alignedtext
grestore
% 11
gsave
1 setlinewidth
solid
0 0 0 nodecolor
440.4879 497.8718 19.4965 19.4965 ellipse_path stroke
0 0 0 nodecolor
14 /Times-Roman set_font
433.4879 494.1718 moveto 14 (11) alignedtext
grestore
% 10->11
gsave
1 setlinewidth
0 0 0 edgecolor
newpath 204.3388 454.0792 moveto
209.8447 457.1615 216.0702 460.384 221.9965 462.8718 curveto
273.3366 484.4234 286.9804 490.2764 341.9931 498.8718 curveto
364.8023 502.4356 390.9454 501.9626 410.5633 500.7193 curveto
stroke
0 0 0 edgecolor
newpath 411.0125 504.1958 moveto
420.7281 499.9701 lineto
410.4978 497.2147 lineto
closepath fill
1 setlinewidth
solid
0 0 0 edgecolor
newpath 411.0125 504.1958 moveto
420.7281 499.9701 lineto
410.4978 497.2147 lineto
closepath stroke
0 0 0 edgecolor
14 /Times-Roman set_font
312.9931 499.6718 moveto 10 (|:|) alignedtext
grestore
% 12
gsave
1 setlinewidth
solid
0 0 0 nodecolor
274.4948 443.8718 19.4965 19.4965 ellipse_path stroke
0 0 0 nodecolor
14 /Times-Roman set_font
267.4948 440.1718 moveto 14 (12) alignedtext
grestore
% 10->12
gsave
1 setlinewidth
0 0 0 edgecolor
newpath 207.2391 443.8718 moveto
218.251 443.8718 232.193 443.8718 244.5243 443.8718 curveto
stroke
0 0 0 edgecolor
newpath 244.8321 447.3719 moveto
254.8321 443.8718 lineto
244.832 440.3719 lineto
closepath fill
1 setlinewidth
solid
0 0 0 edgecolor
newpath 244.8321 447.3719 moveto
254.8321 443.8718 lineto
244.832 440.3719 lineto
closepath stroke
0 0 0 edgecolor
14 /Times-Roman set_font
224.9965 447.6718 moveto 12 (.:.) alignedtext
grestore
% 14
gsave
1 setlinewidth
solid
0 0 0 nodecolor
527.4844 502.8718 19.4965 19.4965 ellipse_path stroke
0 0 0 nodecolor
14 /Times-Roman set_font
520.4844 499.1718 moveto 14 (14) alignedtext
grestore
% 3->14
gsave
1 setlinewidth
0 0 0 edgecolor
newpath 442.8752 310.7448 moveto
446.9074 337.4338 456.4973 388.8461 474.9862 428.8718 curveto
483.5197 447.3455 496.8097 466.019 507.8825 479.9861 curveto
stroke
0 0 0 edgecolor
newpath 505.4017 482.4828 moveto
514.428 488.0305 lineto
510.8314 478.0648 lineto
closepath fill
1 setlinewidth
solid
0 0 0 edgecolor
newpath 505.4017 482.4828 moveto
514.428 488.0305 lineto
510.8314 478.0648 lineto
closepath stroke
0 0 0 edgecolor
14 /Times-Roman set_font
477.9862 462.6718 moveto 12 (.:.) alignedtext
grestore
% 7
gsave
1 setlinewidth
solid
0 0 0 nodecolor
527.4844 236.8718 18 18 ellipse_path stroke
0 0 0 nodecolor
14 /Times-Roman set_font
523.9844 233.1718 moveto 7 (7) alignedtext
grestore
% 3->7
gsave
1 setlinewidth
0 0 0 edgecolor
newpath 442.2113 311.0735 moveto
446.5156 349.2214 459.8684 431.8799 492.9862 404.8718 curveto
514.2051 387.5673 522.7413 308.4184 525.8661 265.2161 curveto
stroke
0 0 0 edgecolor
newpath 529.3697 265.2787 moveto
526.5484 255.0664 lineto
522.3855 264.8091 lineto
closepath fill
1 setlinewidth
solid
0 0 0 edgecolor
newpath 529.3697 265.2787 moveto
526.5484 255.0664 lineto
522.3855 264.8091 lineto
closepath stroke
0 0 0 edgecolor
14 /Times-Roman set_font
474.9862 413.6718 moveto 18 (0:0) alignedtext
grestore
% 3->7
gsave
1 setlinewidth
0 0 0 edgecolor
newpath 444.908 310.4514 moveto
452.5728 337.5769 469.7636 384.7355 492.9862 366.8718 curveto
509.0463 354.5176 519.186 299.1693 524.0516 264.7974 curveto
stroke
0 0 0 edgecolor
newpath 527.5217 265.2533 moveto
525.393 254.8745 lineto
520.5848 264.3155 lineto
closepath fill
1 setlinewidth
solid
0 0 0 edgecolor
newpath 527.5217 265.2533 moveto
525.393 254.8745 lineto
520.5848 264.3155 lineto
closepath stroke
0 0 0 edgecolor
14 /Times-Roman set_font
474.9862 373.6718 moveto 18 (1:1) alignedtext
grestore
% 3->7
gsave
1 setlinewidth
0 0 0 edgecolor
newpath 450.5724 307.9933 moveto
461.1568 321.9444 478.2711 339.0695 492.9862 328.8718 curveto
503.966 321.2626 514.4239 288.5269 520.8886 264.2586 curveto
stroke
0 0 0 edgecolor
newpath 524.3038 265.0308 moveto
523.4045 254.4742 lineto
517.5243 263.2875 lineto
closepath fill
1 setlinewidth
solid
0 0 0 edgecolor
newpath 524.3038 265.0308 moveto
523.4045 254.4742 lineto
517.5243 263.2875 lineto
closepath stroke
0 0 0 edgecolor
14 /Times-Roman set_font
474.9862 335.6718 moveto 18 (2:2) alignedtext
grestore
% 3->7
gsave
1 setlinewidth
0 0 0 edgecolor
newpath 458.6445 296.1783 moveto
469.3202 297.1889 482.6974 296.7653 492.9862 290.8718 curveto
503.7029 284.7332 511.6125 273.7636 517.1343 263.3074 curveto
stroke
0 0 0 edgecolor
newpath 520.4244 264.5377 moveto
521.5461 254.0024 lineto
514.0993 261.5387 lineto
closepath fill
1 setlinewidth
solid
0 0 0 edgecolor
newpath 520.4244 264.5377 moveto
521.5461 254.0024 lineto
514.0993 261.5387 lineto
closepath stroke
0 0 0 edgecolor
14 /Times-Roman set_font
474.9862 300.6718 moveto 18 (3:3) alignedtext
grestore
% 3->7
gsave
1 setlinewidth
0 0 0 edgecolor
newpath 455.6415 283.1173 moveto
468.9081 274.5776 488.4051 262.0273 503.7418 252.155 curveto
stroke
0 0 0 edgecolor
newpath 505.6984 255.058 moveto
512.2125 246.7023 lineto
501.9096 249.172 lineto
closepath fill
1 setlinewidth
solid
0 0 0 edgecolor
newpath 505.6984 255.058 moveto
512.2125 246.7023 lineto
501.9096 249.172 lineto
closepath stroke
0 0 0 edgecolor
14 /Times-Roman set_font
474.9862 274.6718 moveto 18 (4:4) alignedtext
grestore
% 3->7
gsave
1 setlinewidth
0 0 0 edgecolor
newpath 446.9081 276.0033 moveto
452.425 264.0177 461.6235 248.711 474.9862 240.8718 curveto
482.1928 236.644 490.946 234.9254 499.2226 234.4631 curveto
stroke
0 0 0 edgecolor
newpath 499.302 237.9632 moveto
509.2992 234.4551 lineto
499.2964 230.9632 lineto
closepath fill
1 setlinewidth
solid
0 0 0 edgecolor
newpath 499.302 237.9632 moveto
509.2992 234.4551 lineto
499.2964 230.9632 lineto
closepath stroke
0 0 0 edgecolor
14 /Times-Roman set_font
474.9862 244.6718 moveto 18 (5:5) alignedtext
grestore
% 3->7
gsave
1 setlinewidth
0 0 0 edgecolor
newpath 443.0443 274.7987 moveto
446.6798 256.6427 455.253 229.5854 474.9862 216.8718 curveto
484.2766 210.8862 495.628 214.1177 505.3958 219.5796 curveto
stroke
0 0 0 edgecolor
newpath 503.518 222.5333 moveto
513.8164 225.0222 lineto
507.3178 216.6544 lineto
closepath fill
1 setlinewidth
solid
0 0 0 edgecolor
newpath 503.518 222.5333 moveto
513.8164 225.0222 lineto
507.3178 216.6544 lineto
closepath stroke
0 0 0 edgecolor
14 /Times-Roman set_font
474.9862 220.6718 moveto 18 (6:6) alignedtext
grestore
% 3->7
gsave
1 setlinewidth
0 0 0 edgecolor
newpath 444.2057 274.9952 moveto
449.9349 249.3888 461.6643 204.3054 474.9862 194.8718 curveto
488.1599 185.5431 502.4212 198.5508 512.7504 212.4842 curveto
stroke
0 0 0 edgecolor
newpath 510.0975 214.8056 moveto
518.6288 221.0879 lineto
515.8773 210.8566 lineto
closepath fill
1 setlinewidth
solid
0 0 0 edgecolor
newpath 510.0975 214.8056 moveto
518.6288 221.0879 lineto
515.8773 210.8566 lineto
closepath stroke
0 0 0 edgecolor
14 /Times-Roman set_font
474.9862 198.6718 moveto 18 (7:7) alignedtext
grestore
% 3->7
gsave
1 setlinewidth
0 0 0 edgecolor
newpath 443.0515 274.5639 moveto
447.7335 244.1003 458.7085 185.1291 474.9862 172.8718 curveto
493.1679 159.1806 508.946 186.9243 518.3358 210.0754 curveto
stroke
0 0 0 edgecolor
newpath 515.1265 211.483 moveto
521.9572 219.5819 lineto
521.668 208.991 lineto
closepath fill
1 setlinewidth
solid
0 0 0 edgecolor
newpath 515.1265 211.483 moveto
521.9572 219.5819 lineto
521.668 208.991 lineto
closepath stroke
0 0 0 edgecolor
14 /Times-Roman set_font
474.9862 176.6718 moveto 18 (8:8) alignedtext
grestore
% 3->7
gsave
1 setlinewidth
0 0 0 edgecolor
newpath 442.146 274.8638 moveto
445.753 240.1667 455.59 166.1199 474.9862 150.8718 curveto
498.5846 132.32 514.135 177.2815 521.8234 208.9439 curveto
stroke
0 0 0 edgecolor
newpath 518.4946 210.0888 moveto
524.1297 219.0608 lineto
525.3195 208.533 lineto
closepath fill
1 setlinewidth
solid
0 0 0 edgecolor
newpath 518.4946 210.0888 moveto
524.1297 219.0608 lineto
525.3195 208.533 lineto
closepath stroke
0 0 0 edgecolor
14 /Times-Roman set_font
474.9862 154.6718 moveto 18 (9:9) alignedtext
grestore
% 4->3
gsave
1 setlinewidth
0 0 0 edgecolor
newpath 189.0592 179.8854 moveto
192.5438 215.4237 202.2496 292.5418 221.9965 308.8718 curveto
276.4791 353.9266 310.5134 319.4742 380.9896 313.8718 curveto
392.2067 312.9801 395.2676 313.2857 405.9896 309.8718 curveto
409.1708 308.8589 412.4253 307.5932 415.6031 306.212 curveto
stroke
0 0 0 edgecolor
newpath 417.2287 309.3147 moveto
424.7568 301.8596 lineto
414.2228 302.9929 lineto
closepath fill
1 setlinewidth
solid
0 0 0 edgecolor
newpath 417.2287 309.3147 moveto
424.7568 301.8596 lineto
414.2228 302.9929 lineto
closepath stroke
0 0 0 edgecolor
14 /Times-Roman set_font
312.9931 330.6718 moveto 10 (|:|) alignedtext
grestore
% 5
gsave
1 setlinewidth
solid
0 0 0 nodecolor
274.4948 115.8718 18 18 ellipse_path stroke
0 0 0 nodecolor
14 /Times-Roman set_font
270.9948 112.1718 moveto 7 (5) alignedtext
grestore
% 4->5
gsave
1 setlinewidth
0 0 0 edgecolor
newpath 188.7275 180.0981 moveto
192.1406 220.7905 203.9896 313.2361 239.9965 283.8718 curveto
261.2155 266.5673 269.7517 187.4184 272.8765 144.2161 curveto
stroke
0 0 0 edgecolor
newpath 276.3801 144.2787 moveto
273.5588 134.0664 lineto
269.3959 143.8091 lineto
closepath fill
1 setlinewidth
solid
0 0 0 edgecolor
newpath 276.3801 144.2787 moveto
273.5588 134.0664 lineto
269.3959 143.8091 lineto
closepath stroke
0 0 0 edgecolor
14 /Times-Roman set_font
221.9965 293.6718 moveto 18 (0:0) alignedtext
grestore
% 4->5
gsave
1 setlinewidth
0 0 0 edgecolor
newpath 191.0031 179.7152 moveto
197.7243 209.8734 214.0979 265.794 239.9965 245.8718 curveto
256.0567 233.5176 266.1964 178.1693 271.062 143.7974 curveto
stroke
0 0 0 edgecolor
newpath 274.5321 144.2533 moveto
272.4034 133.8745 lineto
267.5952 143.3155 lineto
closepath fill
1 setlinewidth
solid
0 0 0 edgecolor
newpath 274.5321 144.2533 moveto
272.4034 133.8745 lineto
267.5952 143.3155 lineto
closepath stroke
0 0 0 edgecolor
14 /Times-Roman set_font
221.9965 254.6718 moveto 18 (1:1) alignedtext
grestore
% 4->5
gsave
1 setlinewidth
0 0 0 edgecolor
newpath 195.7347 178.2407 moveto
205.6766 195.7534 223.1639 219.537 239.9965 207.8718 curveto
250.9764 200.2626 261.4343 167.5269 267.899 143.2586 curveto
stroke
0 0 0 edgecolor
newpath 271.3142 144.0308 moveto
270.4149 133.4742 lineto
264.5347 142.2875 lineto
closepath fill
1 setlinewidth
solid
0 0 0 edgecolor
newpath 271.3142 144.0308 moveto
270.4149 133.4742 lineto
264.5347 142.2875 lineto
closepath stroke
0 0 0 edgecolor
14 /Times-Roman set_font
221.9965 215.6718 moveto 18 (2:2) alignedtext
grestore
% 4->5
gsave
1 setlinewidth
0 0 0 edgecolor
newpath 204.041 169.4681 moveto
214.8707 173.2614 228.9999 175.8957 239.9965 169.8718 curveto
250.8282 163.9383 258.753 152.9959 264.2553 142.5048 curveto
stroke
0 0 0 edgecolor
newpath 267.5636 143.6934 moveto
268.6411 133.1535 lineto
261.226 140.721 lineto
closepath fill
1 setlinewidth
solid
0 0 0 edgecolor
newpath 267.5636 143.6934 moveto
268.6411 133.1535 lineto
261.226 140.721 lineto
closepath stroke
0 0 0 edgecolor
14 /Times-Roman set_font
221.9965 177.6718 moveto 18 (3:3) alignedtext
grestore
% 4->5
gsave
1 setlinewidth
0 0 0 edgecolor
newpath 203.4548 153.4347 moveto
216.2507 146.6687 234.4485 137.0465 249.2221 129.2349 curveto
stroke
0 0 0 edgecolor
newpath 251.1406 132.1797 moveto
258.3448 124.4112 lineto
247.8685 125.9915 lineto
closepath fill
1 setlinewidth
solid
0 0 0 edgecolor
newpath 251.1406 132.1797 moveto
258.3448 124.4112 lineto
247.8685 125.9915 lineto
closepath stroke
0 0 0 edgecolor
14 /Times-Roman set_font
221.9965 147.6718 moveto 18 (4:4) alignedtext
grestore
% 4->5
gsave
1 setlinewidth
0 0 0 edgecolor
newpath 195.1281 145.0275 moveto
200.8763 134.5463 209.8537 121.9434 221.9965 115.8718 curveto
229.448 112.1459 238.2712 111.0808 246.5366 111.2512 curveto
stroke
0 0 0 edgecolor
newpath 246.3241 114.7451 moveto
256.5626 112.0208 lineto
246.8598 107.7657 lineto
closepath fill
1 setlinewidth
solid
0 0 0 edgecolor
newpath 246.3241 114.7451 moveto
256.5626 112.0208 lineto
246.8598 107.7657 lineto
closepath stroke
0 0 0 edgecolor
14 /Times-Roman set_font
221.9965 119.6718 moveto 18 (5:5) alignedtext
grestore
% 4->5
gsave
1 setlinewidth
0 0 0 edgecolor
newpath 190.8807 144.1696 moveto
195.0739 127.673 203.9961 103.9969 221.9965 92.8718 curveto
231.8166 86.8025 243.518 90.9579 253.3787 97.3172 curveto
stroke
0 0 0 edgecolor
newpath 251.3468 100.1674 moveto
261.4768 103.2713 lineto
255.4934 94.5277 lineto
closepath fill
1 setlinewidth
solid
0 0 0 edgecolor
newpath 251.3468 100.1674 moveto
261.4768 103.2713 lineto
255.4934 94.5277 lineto
closepath stroke
0 0 0 edgecolor
14 /Times-Roman set_font
221.9965 96.6718 moveto 18 (6:6) alignedtext
grestore
% 4->5
gsave
1 setlinewidth
0 0 0 edgecolor
newpath 191.7369 144.248 moveto
197.84 120.5252 209.725 80.3101 221.9965 71.8718 curveto
235.758 62.4089 250.2199 76.57 260.4723 91.2833 curveto
stroke
0 0 0 edgecolor
newpath 257.6254 93.3269 moveto
265.9852 99.8357 lineto
263.509 89.5343 lineto
closepath fill
1 setlinewidth
solid
0 0 0 edgecolor
newpath 257.6254 93.3269 moveto
265.9852 99.8357 lineto
263.509 89.5343 lineto
closepath stroke
0 0 0 edgecolor
14 /Times-Roman set_font
221.9965 75.6718 moveto 18 (7:7) alignedtext
grestore
% 4->5
gsave
1 setlinewidth
0 0 0 edgecolor
newpath 190.4114 143.8502 moveto
195.4605 115.1422 206.7744 61.1109 221.9965 49.8718 curveto
240.8375 35.9606 256.6302 65.2028 265.8278 89.1013 curveto
stroke
0 0 0 edgecolor
newpath 262.552 90.3348 moveto
269.2446 98.5481 lineto
269.1346 87.9539 lineto
closepath fill
1 setlinewidth
solid
0 0 0 edgecolor
newpath 262.552 90.3348 moveto
269.2446 98.5481 lineto
269.1346 87.9539 lineto
closepath stroke
0 0 0 edgecolor
14 /Times-Roman set_font
221.9965 53.6718 moveto 18 (8:8) alignedtext
grestore
% 4->5
gsave
1 setlinewidth
0 0 0 edgecolor
newpath 189.4399 143.8426 moveto
193.4243 110.6673 203.7222 42.0373 221.9965 27.8718 curveto
246.2292 9.0876 261.6279 55.4811 269.1039 87.8064 curveto
stroke
0 0 0 edgecolor
newpath 265.7114 88.6775 moveto
271.254 97.7069 lineto
272.552 87.1919 lineto
closepath fill
1 setlinewidth
solid
0 0 0 edgecolor
newpath 265.7114 88.6775 moveto
271.254 97.7069 lineto
272.552 87.1919 lineto
closepath stroke
0 0 0 edgecolor
14 /Times-Roman set_font
221.9965 31.6718 moveto 18 (9:9) alignedtext
grestore
% 15
gsave
1 setlinewidth
solid
0 0 0 nodecolor
612.481 702.8718 19.4968 19.4968 ellipse_path stroke
1 setlinewidth
solid
0 0 0 nodecolor
612.481 702.8718 23.4965 23.4965 ellipse_path stroke
0 0 0 nodecolor
14 /Times-Roman set_font
605.481 699.1718 moveto 14 (15) alignedtext
grestore
% 14->15
gsave
1 setlinewidth
0 0 0 edgecolor
newpath 535.1772 520.9732 moveto
549.6973 555.1395 581.2949 629.4898 599.2736 671.7944 curveto
stroke
0 0 0 edgecolor
newpath 596.0801 673.2285 moveto
603.2126 681.0629 lineto
602.5224 670.4906 lineto
closepath fill
1 setlinewidth
solid
0 0 0 edgecolor
newpath 596.0801 673.2285 moveto
603.2126 681.0629 lineto
602.5224 670.4906 lineto
closepath stroke
0 0 0 edgecolor
14 /Times-Roman set_font
561.9827 611.6718 moveto 12 (.:.) alignedtext
grestore
% 8
gsave
1 setlinewidth
solid
0 0 0 nodecolor
612.481 559.8718 18 18 ellipse_path stroke
0 0 0 nodecolor
14 /Times-Roman set_font
608.981 556.1718 moveto 7 (8) alignedtext
grestore
% 7->8
gsave
1 setlinewidth
0 0 0 edgecolor
newpath 531.3487 254.5902 moveto
537.4538 282.28 549.8837 337.4506 561.9827 383.8718 curveto
575.7876 436.838 593.8674 498.1758 604.2261 532.6616 curveto
stroke
0 0 0 edgecolor
newpath 600.9432 533.8982 moveto
607.1797 542.4631 lineto
607.6455 531.8785 lineto
closepath fill
1 setlinewidth
solid
0 0 0 edgecolor
newpath 600.9432 533.8982 moveto
607.1797 542.4631 lineto
607.6455 531.8785 lineto
closepath stroke
0 0 0 edgecolor
14 /Times-Roman set_font
561.9827 430.6718 moveto 12 (/:/) alignedtext
grestore
% 17
gsave
1 setlinewidth
solid
0 0 0 nodecolor
802.474 389.8718 19.4968 19.4968 ellipse_path stroke
1 setlinewidth
solid
0 0 0 nodecolor
802.474 389.8718 23.4965 23.4965 ellipse_path stroke
0 0 0 nodecolor
14 /Times-Roman set_font
795.474 386.1718 moveto 14 (17) alignedtext
grestore
% 7->17
gsave
1 setlinewidth
0 0 0 edgecolor
newpath 530.7622 254.6099 moveto
536.2479 282.3048 548.0674 333.8944 561.9827 345.8718 curveto
630.8723 405.1676 675.4676 357.1821 763.9758 377.8718 curveto
765.9996 378.3449 768.0718 378.8696 770.1539 379.4277 curveto
stroke
0 0 0 edgecolor
newpath 769.2464 382.8085 moveto
779.8245 382.2129 lineto
771.1838 376.0819 lineto
closepath fill
1 setlinewidth
solid
0 0 0 edgecolor
newpath 769.2464 382.8085 moveto
779.8245 382.2129 lineto
771.1838 376.0819 lineto
closepath stroke
0 0 0 edgecolor
14 /Times-Roman set_font
650.9792 379.6718 moveto 18 (0:0) alignedtext
grestore
% 7->17
gsave
1 setlinewidth
0 0 0 edgecolor
newpath 531.7305 254.5437 moveto
536.4858 270.6431 545.7441 293.9662 561.9827 307.8718 curveto
633.3121 368.9531 677.0645 334.3017 763.9758 369.8718 curveto
766.812 371.0325 769.7191 372.3295 772.603 373.6901 curveto
stroke
0 0 0 edgecolor
newpath 771.1064 376.8547 moveto
781.6201 378.1639 lineto
774.2176 370.5841 lineto
closepath fill
1 setlinewidth
solid
0 0 0 edgecolor
newpath 771.1064 376.8547 moveto
781.6201 378.1639 lineto
774.2176 370.5841 lineto
closepath stroke
0 0 0 edgecolor
14 /Times-Roman set_font
650.9792 352.6718 moveto 18 (1:1) alignedtext
grestore
% 7->17
gsave
1 setlinewidth
0 0 0 edgecolor
newpath 539.662 250.5642 moveto
545.8863 257.0019 553.8512 264.4377 561.9827 269.8718 curveto
643.5487 324.3798 680.1603 307.8903 763.9758 358.8718 curveto
768.2418 361.4666 772.5575 364.4834 776.6798 367.5963 curveto
stroke
0 0 0 edgecolor
newpath 774.7786 370.5552 moveto
784.7921 374.0165 lineto
779.1227 365.0662 lineto
closepath fill
1 setlinewidth
solid
0 0 0 edgecolor
newpath 774.7786 370.5552 moveto
784.7921 374.0165 lineto
779.1227 365.0662 lineto
closepath stroke
0 0 0 edgecolor
14 /Times-Roman set_font
650.9792 320.6718 moveto 18 (2:2) alignedtext
grestore
% 7->17
gsave
1 setlinewidth
0 0 0 edgecolor
newpath 544.9326 241.7961 moveto
581.1961 252.4551 666.68 279.8087 730.9758 317.8718 curveto
750.5451 329.4568 768.5592 347.6667 781.6103 362.8741 curveto
stroke
0 0 0 edgecolor
newpath 779.2435 365.5019 moveto
788.3287 370.9526 lineto
784.6256 361.026 lineto
closepath fill
1 setlinewidth
solid
0 0 0 edgecolor
newpath 779.2435 365.5019 moveto
788.3287 370.9526 lineto
784.6256 361.026 lineto
closepath stroke
0 0 0 edgecolor
14 /Times-Roman set_font
650.9792 289.6718 moveto 18 (3:3) alignedtext
grestore
% 7->17
gsave
1 setlinewidth
0 0 0 edgecolor
newpath 545.5939 237.3709 moveto
583.4719 239.254 672.3979 248.1473 730.9758 289.8718 curveto
755.9207 307.6398 775.3657 336.9095 787.6387 359.2034 curveto
stroke
0 0 0 edgecolor
newpath 784.6748 361.0849 moveto
792.4546 368.277 lineto
790.8579 357.8032 lineto
closepath fill
1 setlinewidth
solid
0 0 0 edgecolor
newpath 784.6748 361.0849 moveto
792.4546 368.277 lineto
790.8579 357.8032 lineto
closepath stroke
0 0 0 edgecolor
14 /Times-Roman set_font
650.9792 263.6718 moveto 18 (4:4) alignedtext
grestore
% 7->17
gsave
1 setlinewidth
0 0 0 edgecolor
newpath 545.2532 233.8361 moveto
583.2514 228.3671 673.6082 220.9348 730.9758 261.8718 curveto
763.4594 285.0518 782.9716 327.8465 793.2172 357.5378 curveto
stroke
0 0 0 edgecolor
newpath 789.8977 358.6477 moveto
796.3419 367.0574 lineto
796.5486 356.4646 lineto
closepath fill
1 setlinewidth
solid
0 0 0 edgecolor
newpath 789.8977 358.6477 moveto
796.3419 367.0574 lineto
796.5486 356.4646 lineto
closepath stroke
0 0 0 edgecolor
14 /Times-Roman set_font
650.9792 239.6718 moveto 18 (5:5) alignedtext
grestore
% 7->17
gsave
1 setlinewidth
0 0 0 edgecolor
newpath 544.9158 231.3152 moveto
550.3438 229.7214 556.3761 228.0878 561.9827 226.8718 curveto
635.5124 210.9231 668.2488 195.323 730.9758 236.8718 curveto
771.5778 263.7655 789.5917 320.172 797.2364 356.4709 curveto
stroke
0 0 0 edgecolor
newpath 793.8594 357.4398 moveto
799.209 366.5849 lineto
800.7299 356.0998 lineto
closepath fill
1 setlinewidth
solid
0 0 0 edgecolor
newpath 793.8594 357.4398 moveto
799.209 366.5849 lineto
800.7299 356.0998 lineto
closepath stroke
0 0 0 edgecolor
14 /Times-Roman set_font
650.9792 215.6718 moveto 18 (6:6) alignedtext
grestore
% 7->17
gsave
1 setlinewidth
0 0 0 edgecolor
newpath 543.5732 228.2607 moveto
555.7777 221.9828 573.1063 213.606 588.9827 207.8718 curveto
648.3511 186.4289 677.5999 177.1757 730.9758 210.8718 curveto
749.3295 222.4584 753.5229 227.8495 763.9758 246.8718 curveto
783.0263 281.5401 793.0838 326.1902 798.0768 356.3009 curveto
stroke
0 0 0 edgecolor
newpath 794.6379 356.9642 moveto
799.6381 366.3049 lineto
801.5541 355.8848 lineto
closepath fill
1 setlinewidth
solid
0 0 0 edgecolor
newpath 794.6379 356.9642 moveto
799.6381 366.3049 lineto
801.5541 355.8848 lineto
closepath stroke
0 0 0 edgecolor
14 /Times-Roman set_font
650.9792 193.6718 moveto 18 (7:7) alignedtext
grestore
% 7->17
gsave
1 setlinewidth
0 0 0 edgecolor
newpath 540.646 224.2501 moveto
552.4661 213.5186 570.7229 198.3795 588.9827 188.8718 curveto
644.963 159.7234 675.9207 156.0116 730.9758 186.8718 curveto
748.5293 196.7111 754.0047 200.3928 763.9758 217.8718 curveto
777.2829 241.1987 790.4407 313.3981 797.398 356.4842 curveto
stroke
0 0 0 edgecolor
newpath 793.9641 357.1771 moveto
798.9891 366.5044 lineto
800.8775 356.0792 lineto
closepath fill
1 setlinewidth
solid
0 0 0 edgecolor
newpath 793.9641 357.1771 moveto
798.9891 366.5044 lineto
800.8775 356.0792 lineto
closepath stroke
0 0 0 edgecolor
14 /Times-Roman set_font
650.9792 170.6718 moveto 18 (8:8) alignedtext
grestore
% 7->17
gsave
1 setlinewidth
0 0 0 edgecolor
newpath 536.8198 221.451 moveto
547.4497 205.2085 566.3127 180.0607 588.9827 165.8718 curveto
642.4821 132.387 675.4162 133.9293 730.9758 163.8718 curveto
748.1638 173.1349 754.2502 175.9411 763.9758 192.8718 curveto
779.7025 220.2496 792.454 307.571 798.5628 356.2595 curveto
stroke
0 0 0 edgecolor
newpath 795.1048 356.816 moveto
799.7987 366.3142 lineto
802.0525 355.9619 lineto
closepath fill
1 setlinewidth
solid
0 0 0 edgecolor
newpath 795.1048 356.816 moveto
799.7987 366.3142 lineto
802.0525 355.9619 lineto
closepath stroke
0 0 0 edgecolor
14 /Times-Roman set_font
650.9792 145.6718 moveto 18 (9:9) alignedtext
grestore
% 5->3
gsave
1 setlinewidth
0 0 0 edgecolor
newpath 276.2335 133.9869 moveto
280.0418 169.766 290.3071 247.6206 308.9931 265.8718 curveto
336.3145 292.5575 382.5403 296.1421 412.2721 295.2662 curveto
stroke
0 0 0 edgecolor
newpath 412.5947 298.7548 moveto
422.4141 294.7762 lineto
412.2568 291.763 lineto
closepath fill
1 setlinewidth
solid
0 0 0 edgecolor
newpath 412.5947 298.7548 moveto
422.4141 294.7762 lineto
412.2568 291.763 lineto
closepath stroke
0 0 0 edgecolor
14 /Times-Roman set_font
356.4913 298.6718 moveto 10 (|:|) alignedtext
grestore
% 6
gsave
1 setlinewidth
solid
0 0 0 nodecolor
361.4913 110.8718 18 18 ellipse_path stroke
0 0 0 nodecolor
14 /Times-Roman set_font
357.9913 107.1718 moveto 7 (6) alignedtext
grestore
% 5->6
gsave
1 setlinewidth
0 0 0 edgecolor
newpath 275.4866 134.0805 moveto
278.4079 175.2743 289.3071 269.8613 326.9931 240.8718 curveto
343.0533 228.5176 353.1929 173.1693 358.0585 138.7974 curveto
stroke
0 0 0 edgecolor
newpath 361.5286 139.2533 moveto
359.3999 128.8745 lineto
354.5917 138.3155 lineto
closepath fill
1 setlinewidth
solid
0 0 0 edgecolor
newpath 361.5286 139.2533 moveto
359.3999 128.8745 lineto
354.5917 138.3155 lineto
closepath stroke
0 0 0 edgecolor
14 /Times-Roman set_font
308.9931 250.6718 moveto 18 (0:0) alignedtext
grestore
% 5->6
gsave
1 setlinewidth
0 0 0 edgecolor
newpath 277.6705 134.045 moveto
283.8698 164.7927 299.444 221.9637 326.9931 202.8718 curveto
337.9729 195.2626 348.4308 162.5269 354.8955 138.2586 curveto
stroke
0 0 0 edgecolor
newpath 358.3107 139.0308 moveto
357.4115 128.4742 lineto
351.5313 137.2875 lineto
closepath fill
1 setlinewidth
solid
0 0 0 edgecolor
newpath 358.3107 139.0308 moveto
357.4115 128.4742 lineto
351.5313 137.2875 lineto
closepath stroke
0 0 0 edgecolor
14 /Times-Roman set_font
308.9931 210.6718 moveto 18 (1:1) alignedtext
grestore
% 5->6
gsave
1 setlinewidth
0 0 0 edgecolor
newpath 281.362 132.8041 moveto
286.9594 144.1373 296.0648 158.1629 308.9931 164.8718 curveto
316.0939 168.5566 319.9768 168.7152 326.9931 164.8718 curveto
337.8247 158.9383 345.7496 147.9959 351.2518 137.5048 curveto
stroke
0 0 0 edgecolor
newpath 354.5601 138.6934 moveto
355.6377 128.1535 lineto
348.2225 135.721 lineto
closepath fill
1 setlinewidth
solid
0 0 0 edgecolor
newpath 354.5601 138.6934 moveto
355.6377 128.1535 lineto
348.2225 135.721 lineto
closepath stroke
0 0 0 edgecolor
14 /Times-Roman set_font
308.9931 171.6718 moveto 18 (2:2) alignedtext
grestore
% 5->6
gsave
1 setlinewidth
0 0 0 edgecolor
newpath 291.0652 122.9779 moveto
301.407 126.5125 314.9896 129.5199 326.9931 126.8718 curveto
330.2166 126.1606 333.497 125.1169 336.689 123.8977 curveto
stroke
0 0 0 edgecolor
newpath 338.1074 127.0975 moveto
345.8547 119.8705 lineto
335.2915 120.6888 lineto
closepath fill
1 setlinewidth
solid
0 0 0 edgecolor
newpath 338.1074 127.0975 moveto
345.8547 119.8705 lineto
335.2915 120.6888 lineto
closepath stroke
0 0 0 edgecolor
14 /Times-Roman set_font
308.9931 132.6718 moveto 18 (3:3) alignedtext
grestore
% 5->6
gsave
1 setlinewidth
0 0 0 edgecolor
newpath 291.9101 111.0205 moveto
297.3374 109.7289 303.3734 108.5148 308.9931 107.8718 curveto
316.8499 106.9727 325.4007 107.0256 333.2761 107.4891 curveto
stroke
0 0 0 edgecolor
newpath 333.2155 110.9958 moveto
343.4681 108.3249 lineto
333.7877 104.0193 lineto
closepath fill
1 setlinewidth
solid
0 0 0 edgecolor
newpath 333.2155 110.9958 moveto
343.4681 108.3249 lineto
333.7877 104.0193 lineto
closepath stroke
0 0 0 edgecolor
14 /Times-Roman set_font
308.9931 111.6718 moveto 18 (4:4) alignedtext
grestore
% 5->6
gsave
1 setlinewidth
0 0 0 edgecolor
newpath 286.9967 102.7745 moveto
293.0587 97.3613 300.7963 91.698 308.9931 88.8718 curveto
318.9428 85.4411 329.6999 88.6724 338.8706 93.6164 curveto
stroke
0 0 0 edgecolor
newpath 337.086 96.6283 moveto
347.4238 98.948 lineto
340.789 90.6879 lineto
closepath fill
1 setlinewidth
solid
0 0 0 edgecolor
newpath 337.086 96.6283 moveto
347.4238 98.948 lineto
340.789 90.6879 lineto
closepath stroke
0 0 0 edgecolor
14 /Times-Roman set_font
308.9931 92.6718 moveto 18 (5:5) alignedtext
grestore
% 5->6
gsave
1 setlinewidth
0 0 0 edgecolor
newpath 281.7841 99.1427 moveto
287.4807 88.3475 296.5319 75.1829 308.9931 68.8718 curveto
316.1299 65.2572 319.7604 65.4529 326.9931 68.8718 curveto
334.9109 72.6146 341.622 79.164 346.9607 85.9931 curveto
stroke
0 0 0 edgecolor
newpath 344.3798 88.4101 moveto
352.9766 94.6025 lineto
350.1178 84.4007 lineto
closepath fill
1 setlinewidth
solid
0 0 0 edgecolor
newpath 344.3798 88.4101 moveto
352.9766 94.6025 lineto
350.1178 84.4007 lineto
closepath stroke
0 0 0 edgecolor
14 /Times-Roman set_font
308.9931 72.6718 moveto 18 (6:6) alignedtext
grestore
% 5->6
gsave
1 setlinewidth
0 0 0 edgecolor
newpath 278.0359 98.1078 moveto
282.3191 81.8585 291.2817 58.7466 308.9931 47.8718 curveto
327.9112 36.256 343.2598 62.1623 352.369 84.1916 curveto
stroke
0 0 0 edgecolor
newpath 349.1277 85.5141 moveto
355.9943 93.5826 lineto
355.658 82.9931 lineto
closepath fill
1 setlinewidth
solid
0 0 0 edgecolor
newpath 349.1277 85.5141 moveto
355.9943 93.5826 lineto
355.658 82.9931 lineto
closepath stroke
0 0 0 edgecolor
14 /Times-Roman set_font
308.9931 51.6718 moveto 18 (7:7) alignedtext
grestore
% 5->6
gsave
1 setlinewidth
0 0 0 edgecolor
newpath 278.8661 98.0438 moveto
285.0334 74.5322 296.893 35.1588 308.9931 26.8718 curveto
333.0859 10.3711 348.3147 52.7174 355.8384 83.104 curveto
stroke
0 0 0 edgecolor
newpath 352.4292 83.8965 moveto
358.0962 92.8483 lineto
359.2486 82.3163 lineto
closepath fill
1 setlinewidth
solid
0 0 0 edgecolor
newpath 352.4292 83.8965 moveto
358.0962 92.8483 lineto
359.2486 82.3163 lineto
closepath stroke
0 0 0 edgecolor
14 /Times-Roman set_font
308.9931 30.6718 moveto 18 (8:8) alignedtext
grestore
% 5->6
gsave
1 setlinewidth
0 0 0 edgecolor
newpath 277.4326 98.0088 moveto
282.5172 69.5538 293.8809 16.0002 308.9931 4.8718 curveto
338.7701 -17.0557 352.6314 44.3101 358.2345 82.6414 curveto
stroke
0 0 0 edgecolor
newpath 354.7933 83.3129 moveto
359.6022 92.7536 lineto
361.7302 82.3746 lineto
closepath fill
1 setlinewidth
solid
0 0 0 edgecolor
newpath 354.7933 83.3129 moveto
359.6022 92.7536 lineto
361.7302 82.3746 lineto
closepath stroke
0 0 0 edgecolor
14 /Times-Roman set_font
308.9931 8.6718 moveto 18 (9:9) alignedtext
grestore
% 6->3
gsave
1 setlinewidth
0 0 0 edgecolor
newpath 368.7816 127.6677 moveto
382.5962 159.4952 412.6755 228.7948 429.1469 266.7432 curveto
stroke
0 0 0 edgecolor
newpath 426.023 268.3369 moveto
433.2153 276.1165 lineto
432.4443 265.5497 lineto
closepath fill
1 setlinewidth
solid
0 0 0 edgecolor
newpath 426.023 268.3369 moveto
433.2153 276.1165 lineto
432.4443 265.5497 lineto
closepath stroke
0 0 0 edgecolor
14 /Times-Roman set_font
395.9896 216.6718 moveto 10 (|:|) alignedtext
grestore
% 9
gsave
1 setlinewidth
solid
0 0 0 nodecolor
707.4775 569.8718 18 18 ellipse_path stroke
1 setlinewidth
solid
0 0 0 nodecolor
707.4775 569.8718 22 22 ellipse_path stroke
0 0 0 nodecolor
14 /Times-Roman set_font
703.9775 566.1718 moveto 7 (9) alignedtext
grestore
% 8->9
gsave
1 setlinewidth
0 0 0 edgecolor
newpath 616.2316 577.5564 moveto
625.3203 620.2243 647.9954 725.4944 650.9792 727.8718 curveto
657.2361 732.857 662.6883 732.8139 668.9792 727.8718 curveto
688.4838 712.5491 699.35 643.8302 704.2477 602.2299 curveto
stroke
0 0 0 edgecolor
newpath 707.7545 602.364 moveto
705.3927 592.0357 lineto
700.7983 601.5825 lineto
closepath fill
1 setlinewidth
solid
0 0 0 edgecolor
newpath 707.7545 602.364 moveto
705.3927 592.0357 lineto
700.7983 601.5825 lineto
closepath stroke
0 0 0 edgecolor
14 /Times-Roman set_font
650.9792 734.6718 moveto 18 (0:0) alignedtext
grestore
% 8->9
gsave
1 setlinewidth
0 0 0 edgecolor
newpath 615.1421 577.9024 moveto
620.337 610.3317 632.9211 676.3862 650.9792 689.8718 curveto
684.1309 714.6291 698.5788 645.514 704.2468 602.1065 curveto
stroke
0 0 0 edgecolor
newpath 707.7477 602.3089 moveto
705.4752 591.9606 lineto
700.7985 601.4674 lineto
closepath fill
1 setlinewidth
solid
0 0 0 edgecolor
newpath 707.7477 602.3089 moveto
705.4752 591.9606 lineto
700.7985 601.4674 lineto
closepath stroke
0 0 0 edgecolor
14 /Times-Roman set_font
650.9792 698.6718 moveto 18 (1:1) alignedtext
grestore
% 8->9
gsave
1 setlinewidth
0 0 0 edgecolor
newpath 614.2435 578.1386 moveto
617.4346 599.9294 626.3319 635.4673 650.9792 651.8718 curveto
674.2811 667.3807 690.7077 630.4714 699.6347 601.2452 curveto
stroke
0 0 0 edgecolor
newpath 703.0868 601.9038 moveto
702.4785 591.3265 lineto
696.3579 599.9745 lineto
closepath fill
1 setlinewidth
solid
0 0 0 edgecolor
newpath 703.0868 601.9038 moveto
702.4785 591.3265 lineto
696.3579 599.9745 lineto
closepath stroke
0 0 0 edgecolor
14 /Times-Roman set_font
650.9792 658.6718 moveto 18 (2:2) alignedtext
grestore
% 8->9
gsave
1 setlinewidth
0 0 0 edgecolor
newpath 619.2928 576.6885 moveto
625.473 589.4658 635.9336 606.1205 650.9792 613.8718 curveto
665.2569 621.2274 679.5123 609.9541 690.132 596.9805 curveto
stroke
0 0 0 edgecolor
newpath 693.0418 598.9341 moveto
696.2421 588.8342 lineto
687.4419 594.7339 lineto
closepath fill
1 setlinewidth
solid
0 0 0 edgecolor
newpath 693.0418 598.9341 moveto
696.2421 588.8342 lineto
687.4419 594.7339 lineto
closepath stroke
0 0 0 edgecolor
14 /Times-Roman set_font
650.9792 619.6718 moveto 18 (3:3) alignedtext
grestore
% 8->9
gsave
1 setlinewidth
0 0 0 edgecolor
newpath 628.5184 568.1978 moveto
635.2637 571.2556 643.3133 574.3422 650.9792 575.8718 curveto
659.005 577.4731 667.763 577.4063 675.9356 576.5843 curveto
stroke
0 0 0 edgecolor
newpath 676.4499 580.0466 moveto
685.8753 575.2081 lineto
675.4898 573.1127 lineto
closepath fill
1 setlinewidth
solid
0 0 0 edgecolor
newpath 676.4499 580.0466 moveto
685.8753 575.2081 lineto
675.4898 573.1127 lineto
closepath stroke
0 0 0 edgecolor
14 /Times-Roman set_font
650.9792 580.6718 moveto 18 (4:4) alignedtext
grestore
% 8->9
gsave
1 setlinewidth
0 0 0 edgecolor
newpath 630.401 556.9626 moveto
641.5637 555.6332 656.185 554.7699 668.9792 556.8718 curveto
671.6919 557.3174 674.4708 557.9286 677.2329 558.6446 curveto
stroke
0 0 0 edgecolor
newpath 676.4297 562.0579 moveto
687.0141 561.5885 lineto
678.4471 555.3549 lineto
closepath fill
1 setlinewidth
solid
0 0 0 edgecolor
newpath 676.4297 562.0579 moveto
687.0141 561.5885 lineto
678.4471 555.3549 lineto
closepath stroke
0 0 0 edgecolor
14 /Times-Roman set_font
650.9792 560.6718 moveto 18 (5:5) alignedtext
grestore
% 8->9
gsave
1 setlinewidth
0 0 0 edgecolor
newpath 626.2866 547.6812 moveto
637.6491 539.1838 654.2275 530.2902 668.9792 535.8718 curveto
674.8564 538.0955 680.4151 541.6712 685.3853 545.6862 curveto
stroke
0 0 0 edgecolor
newpath 683.3796 548.5909 moveto
693.1466 552.6965 lineto
688.0717 543.3962 lineto
closepath fill
1 setlinewidth
solid
0 0 0 edgecolor
newpath 683.3796 548.5909 moveto
693.1466 552.6965 lineto
688.0717 543.3962 lineto
closepath stroke
0 0 0 edgecolor
14 /Times-Roman set_font
650.9792 539.6718 moveto 18 (6:6) alignedtext
grestore
% 8->9
gsave
1 setlinewidth
0 0 0 edgecolor
newpath 621.2954 544.1264 moveto
631.801 527.5629 650.2935 505.1427 668.9792 514.8718 curveto
679.6646 520.4353 687.9972 530.472 694.1351 540.4628 curveto
stroke
0 0 0 edgecolor
newpath 691.2398 542.4579 moveto
699.1595 549.4956 lineto
697.3571 539.0552 lineto
closepath fill
1 setlinewidth
solid
0 0 0 edgecolor
newpath 691.2398 542.4579 moveto
699.1595 549.4956 lineto
697.3571 539.0552 lineto
closepath stroke
0 0 0 edgecolor
14 /Times-Roman set_font
650.9792 518.6718 moveto 18 (7:7) alignedtext
grestore
% 8->9
gsave
1 setlinewidth
0 0 0 edgecolor
newpath 618.0093 542.6638 moveto
626.8047 518.3188 645.4229 478.3128 668.9792 492.8718 curveto
684.9825 502.7625 694.5558 521.5429 700.1533 538.0795 curveto
stroke
0 0 0 edgecolor
newpath 696.9039 539.4262 moveto
703.1467 547.9865 lineto
703.6047 537.4015 lineto
closepath fill
1 setlinewidth
solid
0 0 0 edgecolor
newpath 696.9039 539.4262 moveto
703.1467 547.9865 lineto
703.6047 537.4015 lineto
closepath stroke
0 0 0 edgecolor
14 /Times-Roman set_font
650.9792 496.6718 moveto 18 (8:8) alignedtext
grestore
% 8->9
gsave
1 setlinewidth
0 0 0 edgecolor
newpath 615.8336 542.0502 moveto
622.5982 510.4724 639.7778 449.8231 668.9792 469.8718 curveto
680.7584 477.9589 692.2628 512.3453 699.5811 538.5582 curveto
stroke
0 0 0 edgecolor
newpath 696.2761 539.7445 moveto
702.2651 548.4842 lineto
703.0335 537.9173 lineto
closepath fill
1 setlinewidth
solid
0 0 0 edgecolor
newpath 696.2761 539.7445 moveto
702.2651 548.4842 lineto
703.0335 537.9173 lineto
closepath stroke
0 0 0 edgecolor
14 /Times-Roman set_font
650.9792 473.6718 moveto 18 (9:9) alignedtext
grestore
% 9->17
gsave
1 setlinewidth
0 0 0 edgecolor
newpath 708.7754 592.0317 moveto
712.3341 639.64 724.7577 744.6544 763.9758 709.8718 curveto
785.1417 691.0997 796.8921 502.2795 800.8939 423.7997 curveto
stroke
0 0 0 edgecolor
newpath 804.4057 423.6491 moveto
801.4074 413.4874 lineto
797.4143 423.3009 lineto
closepath fill
1 setlinewidth
solid
0 0 0 edgecolor
newpath 804.4057 423.6491 moveto
801.4074 413.4874 lineto
797.4143 423.3009 lineto
closepath stroke
0 0 0 edgecolor
14 /Times-Roman set_font
745.9758 719.6718 moveto 18 (0:0) alignedtext
grestore
% 9->17
gsave
1 setlinewidth
0 0 0 edgecolor
newpath 711.0287 591.7581 moveto
717.9123 628.7265 734.9976 697.1627 763.9758 671.8718 curveto
782.4334 655.7628 795.3975 495.374 800.3026 423.9158 curveto
stroke
0 0 0 edgecolor
newpath 803.8143 423.8581 moveto
800.9939 413.6456 lineto
796.8301 423.3879 lineto
closepath fill
1 setlinewidth
solid
0 0 0 edgecolor
newpath 803.8143 423.8581 moveto
800.9939 413.6456 lineto
796.8301 423.3879 lineto
closepath stroke
0 0 0 edgecolor
14 /Times-Roman set_font
745.9758 680.6718 moveto 18 (1:1) alignedtext
grestore
% 9->17
gsave
1 setlinewidth
0 0 0 edgecolor
newpath 715.1197 590.5214 moveto
725.3155 615.0386 744.3707 650.6261 763.9758 633.8718 curveto
779.7705 620.3737 793.7131 487.4917 799.5568 423.7051 curveto
stroke
0 0 0 edgecolor
newpath 803.0769 423.6387 moveto
800.4884 413.3649 lineto
796.1051 423.0105 lineto
closepath fill
1 setlinewidth
solid
0 0 0 edgecolor
newpath 803.0769 423.6387 moveto
800.4884 413.3649 lineto
796.1051 423.0105 lineto
closepath stroke
0 0 0 edgecolor
14 /Times-Roman set_font
745.9758 641.6718 moveto 18 (2:2) alignedtext
grestore
% 9->17
gsave
1 setlinewidth
0 0 0 edgecolor
newpath 723.0896 585.7261 moveto
735.177 596.0701 751.8479 605.9431 763.9758 595.8718 curveto
789.8346 574.3979 798.4209 476.6089 801.1971 423.8537 curveto
stroke
0 0 0 edgecolor
newpath 804.7042 423.7887 moveto
801.6919 413.6312 lineto
797.7124 423.4502 lineto
closepath fill
1 setlinewidth
solid
0 0 0 edgecolor
newpath 804.7042 423.7887 moveto
801.6919 413.6312 lineto
797.7124 423.4502 lineto
closepath stroke
0 0 0 edgecolor
14 /Times-Roman set_font
745.9758 603.6718 moveto 18 (3:3) alignedtext
grestore
% 9->17
gsave
1 setlinewidth
0 0 0 edgecolor
newpath 729.7016 570.5676 moveto
741.3624 569.7309 755.0421 566.6638 763.9758 557.8718 curveto
782.7423 539.4028 793.9007 466.9305 799.0424 423.4334 curveto
stroke
0 0 0 edgecolor
newpath 802.5411 423.6428 moveto
800.1924 413.3115 lineto
795.5858 422.8525 lineto
closepath fill
1 setlinewidth
solid
0 0 0 edgecolor
newpath 802.5411 423.6428 moveto
800.1924 413.3115 lineto
795.5858 422.8525 lineto
closepath stroke
0 0 0 edgecolor
14 /Times-Roman set_font
745.9758 570.6718 moveto 18 (4:4) alignedtext
grestore
% 9->17
gsave
1 setlinewidth
0 0 0 edgecolor
newpath 724.9416 556.2072 moveto
739.4634 544.5322 758.5929 528.3232 763.9758 519.8718 curveto
782.8129 490.2965 792.7633 451.1211 797.7908 423.5331 curveto
stroke
0 0 0 edgecolor
newpath 801.2588 424.0165 moveto
799.4849 413.5712 lineto
794.3579 422.8429 lineto
closepath fill
1 setlinewidth
solid
0 0 0 edgecolor
newpath 801.2588 424.0165 moveto
799.4849 413.5712 lineto
794.3579 422.8429 lineto
closepath stroke
0 0 0 edgecolor
14 /Times-Roman set_font
745.9758 541.6718 moveto 18 (5:5) alignedtext
grestore
% 9->17
gsave
1 setlinewidth
0 0 0 edgecolor
newpath 717.0236 549.7421 moveto
724.1571 535.5333 734.6049 516.3482 745.9758 500.8718 curveto
752.8631 491.4977 757.6269 491.6186 763.9758 481.8718 curveto
776.0159 463.3879 785.6072 440.515 792.205 422.2 curveto
stroke
0 0 0 edgecolor
newpath 795.5817 423.1455 moveto
795.5591 412.5507 lineto
788.9698 420.8472 lineto
closepath fill
1 setlinewidth
solid
0 0 0 edgecolor
newpath 795.5817 423.1455 moveto
795.5591 412.5507 lineto
788.9698 420.8472 lineto
closepath stroke
0 0 0 edgecolor
14 /Times-Roman set_font
745.9758 504.6718 moveto 18 (6:6) alignedtext
grestore
% 9->17
gsave
1 setlinewidth
0 0 0 edgecolor
newpath 712.4552 548.2026 moveto
718.2451 525.7203 729.2079 490.1061 745.9758 462.8718 curveto
752.0744 452.9664 756.5816 452.8515 763.9758 443.8718 curveto
770.7273 435.6725 777.6121 426.3704 783.6575 417.8249 curveto
stroke
0 0 0 edgecolor
newpath 786.5426 419.8065 moveto
789.3869 409.6006 lineto
780.7989 415.8052 lineto
closepath fill
1 setlinewidth
solid
0 0 0 edgecolor
newpath 786.5426 419.8065 moveto
789.3869 409.6006 lineto
780.7989 415.8052 lineto
closepath stroke
0 0 0 edgecolor
14 /Times-Roman set_font
745.9758 466.6718 moveto 18 (7:7) alignedtext
grestore
% 9->17
gsave
1 setlinewidth
0 0 0 edgecolor
newpath 711.2514 547.9278 moveto
717.6907 512.4229 731.5133 444.3841 745.9758 424.8718 curveto
752.5883 415.9504 762.2141 408.7902 771.653 403.3279 curveto
stroke
0 0 0 edgecolor
newpath 773.3499 406.3897 moveto
780.5409 398.609 lineto
770.0672 400.2071 lineto
closepath fill
1 setlinewidth
solid
0 0 0 edgecolor
newpath 773.3499 406.3897 moveto
780.5409 398.609 lineto
770.0672 400.2071 lineto
closepath stroke
0 0 0 edgecolor
14 /Times-Roman set_font
745.9758 428.6718 moveto 18 (8:8) alignedtext
grestore
% 9->17
gsave
1 setlinewidth
0 0 0 edgecolor
newpath 708.8223 547.6339 moveto
711.9879 503.7703 721.5692 408.6331 745.9758 388.8718 curveto
752.5888 383.5174 761.2061 381.906 769.7106 382.1159 curveto
stroke
0 0 0 edgecolor
newpath 769.5841 385.6209 moveto
779.8858 383.1461 lineto
770.2893 378.6565 lineto
closepath fill
1 setlinewidth
solid
0 0 0 edgecolor
newpath 769.5841 385.6209 moveto
779.8858 383.1461 lineto
770.2893 378.6565 lineto
closepath stroke
0 0 0 edgecolor
14 /Times-Roman set_font
745.9758 392.6718 moveto 18 (9:9) alignedtext
grestore
% 11->14
gsave
1 setlinewidth
0 0 0 edgecolor
newpath 460.2288 499.0064 moveto
471.2406 499.6392 485.1826 500.4405 497.5139 501.1493 curveto
stroke
0 0 0 edgecolor
newpath 497.6373 504.662 moveto
507.8217 501.7417 lineto
498.039 497.6736 lineto
closepath fill
1 setlinewidth
solid
0 0 0 edgecolor
newpath 497.6373 504.662 moveto
507.8217 501.7417 lineto
498.039 497.6736 lineto
closepath stroke
0 0 0 edgecolor
14 /Times-Roman set_font
477.9862 503.6718 moveto 12 (.:.) alignedtext
grestore
% 12->11
gsave
1 setlinewidth
0 0 0 edgecolor
newpath 292.6391 451.5926 moveto
297.8795 453.725 303.6314 455.9727 308.9931 457.8718 curveto
343.941 470.2501 384.9053 482.3375 411.7092 489.9274 curveto
stroke
0 0 0 edgecolor
newpath 411.0136 493.3674 moveto
421.5876 492.7023 lineto
412.9068 486.6282 lineto
closepath fill
1 setlinewidth
solid
0 0 0 edgecolor
newpath 411.0136 493.3674 moveto
421.5876 492.7023 lineto
412.9068 486.6282 lineto
closepath stroke
0 0 0 edgecolor
14 /Times-Roman set_font
356.4913 483.6718 moveto 10 (|:|) alignedtext
grestore
% 13
gsave
1 setlinewidth
solid
0 0 0 nodecolor
361.4913 433.8718 19.4965 19.4965 ellipse_path stroke
0 0 0 nodecolor
14 /Times-Roman set_font
354.4913 430.1718 moveto 14 (13) alignedtext
grestore
% 12->13
gsave
1 setlinewidth
0 0 0 edgecolor
newpath 294.2357 441.6026 moveto
305.3587 440.3241 319.4715 438.7018 331.894 437.2739 curveto
stroke
0 0 0 edgecolor
newpath 332.2937 440.7511 moveto
341.8286 436.1319 lineto
331.4943 433.7969 lineto
closepath fill
1 setlinewidth
solid
0 0 0 edgecolor
newpath 332.2937 440.7511 moveto
341.8286 436.1319 lineto
331.4943 433.7969 lineto
closepath stroke
0 0 0 edgecolor
14 /Times-Roman set_font
311.9931 442.6718 moveto 12 (.:.) alignedtext
grestore
% 13->11
gsave
1 setlinewidth
0 0 0 edgecolor
newpath 379.1927 442.5959 moveto
387.6932 447.1794 397.7882 453.2229 405.9896 459.8718 curveto
411.4771 464.3205 416.8745 469.6583 421.7112 474.9078 curveto
stroke
0 0 0 edgecolor
newpath 419.1008 477.2394 moveto
428.3416 482.422 lineto
424.3496 472.6079 lineto
closepath fill
1 setlinewidth
solid
0 0 0 edgecolor
newpath 419.1008 477.2394 moveto
428.3416 482.422 lineto
424.3496 472.6079 lineto
closepath stroke
0 0 0 edgecolor
14 /Times-Roman set_font
395.9896 463.6718 moveto 10 (|:|) alignedtext
grestore
% 16
gsave
1 setlinewidth
solid
0 0 0 nodecolor
707.4775 782.8718 19.4968 19.4968 ellipse_path stroke
1 setlinewidth
solid
0 0 0 nodecolor
707.4775 782.8718 23.4965 23.4965 ellipse_path stroke
0 0 0 nodecolor
14 /Times-Roman set_font
700.4775 779.1718 moveto 14 (16) alignedtext
grestore
% 15->16
gsave
1 setlinewidth
0 0 0 edgecolor
newpath 626.0795 722.5397 moveto
632.8962 731.5334 641.6732 741.9282 650.9792 749.8718 curveto
658.8664 756.6042 668.313 762.7314 677.2037 767.829 curveto
stroke
0 0 0 edgecolor
newpath 675.7279 771.0114 moveto
686.179 772.7506 lineto
679.0937 764.8736 lineto
closepath fill
1 setlinewidth
solid
0 0 0 edgecolor
newpath 675.7279 771.0114 moveto
686.179 772.7506 lineto
679.0937 764.8736 lineto
closepath stroke
0 0 0 edgecolor
14 /Times-Roman set_font
653.9792 765.6718 moveto 12 (.:.) alignedtext
grestore
% 16->17
gsave
1 setlinewidth
0 0 0 edgecolor
newpath 727.943 771.1199 moveto
740.5508 762.7217 755.8163 750.2122 763.9758 734.8718 curveto
792.3669 681.4944 799.903 499.8771 801.8347 423.8143 curveto
stroke
0 0 0 edgecolor
newpath 805.3438 423.4654 moveto
802.0808 413.3856 lineto
798.3457 423.3002 lineto
closepath fill
1 setlinewidth
solid
0 0 0 edgecolor
newpath 805.3438 423.4654 moveto
802.0808 413.3856 lineto
798.3457 423.3002 lineto
closepath stroke
0 0 0 edgecolor
14 /Times-Roman set_font
748.9758 759.6718 moveto 12 (.:.) alignedtext
grestore
endpage
showpage
grestore
%%PageTrailer
%%EndPage: 1
%%Trailer
%%Pages: 1
%%BoundingBox: 36 97 648 695
end
restore
%%EOF
